{
  "plugins": {
    "SplashScreen": {
      "launchShowDuration": 1000,
      "launchAutoHide": true,
      "androidSplashResourceName": "splash",
      "androidScaleType": "CENTER_CROP",
      "splashFullScreen": true
    }
  }
}
